{"miRestaurantes":
	[
		{"id":"RE001","nombre":"Electro Burger","rating":4.5,"costo":"Mediano","delivery":false,"takeout":false,"telefono":"62569132"},
		{"id":"RE002","nombre":"Filippo Restaurant & Cafe","rating":4.4,"costo":"Mediano","delivery":true,"takeout":true,"telefono":"88975025"},
		{"id":"RE003","nombre":"Bread House","rating":4.6,"costo":"Bajo","delivery":true,"takeout":true,"telefono":"N/D"},
		{"id":"RE004","nombre":"Soda Yogui's","rating":5.0,"costo":"Bajo","delivery":true,"takeout":true,"telefono":"40303361"},
		{"id":"RE005","nombre":"Restaurante P y P","rating":4.2,"costo":"Alto","delivery":false,"takeout":false,"telefono":"N/D"},
		{"id":"RE006","nombre":"Restaurante Omar Khayyam","rating":4.2,"costo":"Mediano","delivery":false,"takeout":true,"telefono":"22531797"}
	]
}